id;titolo
1;transparent Metrics
2;Handmade Concrete Hat Avon
3;algorithm
4;Pizza metrics
5;Industrial Communications SAS
6;revolutionary Adaptive
7;Clothing
8;Auto Loan Account Refined initiatives
9;Buckinghamshire
10;Wyoming Avon recontextualize
