{
  "name": "Progetto",
  "fields": [
    {
      "fieldName": "titolo",
      "fieldType": "String"
    },
    {
      "fieldName": "descrizione",
      "fieldType": "String"
    },
    {
      "fieldName": "importo",
      "fieldType": "Double"
    },
    {
      "fieldName": "dataInizio",
      "fieldType": "LocalDate"
    },
    {
      "fieldName": "dataFine",
      "fieldType": "LocalDate"
    },
    {
      "fieldName": "stato",
      "fieldType": "Stati",
      "fieldValues": "PROGETTAZIONE,PROGRAMMAZIONE,ESECUZIONE"
    },
    {
      "fieldName": "attivo",
      "fieldType": "Boolean"
    }
  ],
  "relationships": [
    {
      "relationshipType": "many-to-one",
      "otherEntityName": "comune",
      "otherEntityRelationshipName": "progetto",
      "relationshipName": "comune",
      "otherEntityField": "id"
    },
    {
      "relationshipType": "many-to-one",
      "otherEntityName": "area",
      "otherEntityRelationshipName": "progetto",
      "relationshipName": "area",
      "otherEntityField": "id"
    }
  ],
  "changelogDate": "20210714134248",
  "entityTableName": "progetto",
  "dto": "no",
  "pagination": "infinite-scroll",
  "service": "serviceImpl",
  "jpaMetamodelFiltering": false,
  "fluentMethods": true,
  "readOnly": false,
  "embedded": false,
  "clientRootFolder": "ilpatto",
  "applications": ["ilpatto"],
  "microserviceName": "ilpatto"
}
